{
  "Serial Number": 2345671,
  "Child First Name": "Andrew",
  "Child Middle Name": "Makena",
  "Child Father Name": "Owino",
  "Birth Date": "03/10/2016",
  "Sex": "M",
  "Type Of Birth": "Single",
  "Nature Of Birth": "Alive",
  "Place Of Birth": "Moi University Hospital",
  "Sub County": "Eldoret",
  "Mother First Name": "Emma",
  "Mother Middle Name": "Mary",
  "Mother Father Name": "Chelegat",
  "Notification Issued To": "Emma Chelegat",
  "Id": 12345678
}